…
    ## `summarise()` regrouping output by 'samp_size' (override with `.groups` argument)

``` r
sim_data
```

    ## # A tibble: 200 x 2
    ## # Groups:   samp_size [16]
    ##    samp_size sim_data
    ##        <int>    <dbl>
    ##  1         5       52
    ##  2         5       74
    ##  3         5       47
    ##  4         5       13
    ##  5         5       50
    ##  6         6       94
    ##  7         6       47
    ##  8         6        6
    ##  9         6       86
    ## 10         6       50
    ## # ... with 190 more rows
…
    ## `summarise()` regrouping output by 'samp_size' (override with `.groups` argument)

``` r
sim_upper_quarts
```

    ## # A tibble: 200,000 x 2
    ## # Groups:   samp_size [16]
    ##    samp_size upper_quarts
    ##        <int>        <dbl>
    ##  1         5           94
    ##  2         5           98
    ##  3         5           50
    ##  4         5           96
    ##  5         5           74
    ##  6         5           96
    ##  7         5           50
    ##  8         5           52
    ##  9         5           96
    ## 10         5           82
    ## # ... with 199,990 more rows
…
    ## `summarise()` regrouping output by 'samp_size' (override with `.groups` argument)

``` r
upper_quart_SE
```

    ## # A tibble: 200,000 x 2
    ## # Groups:   samp_size [16]
    ##    samp_size upper_quart_SE
    ##        <int>          <dbl>
    ##  1         5           26.8
    ##  2         5           34.0
    ##  3         5           32.5
    ##  4         5           42.6
    ##  5         5           30.2
    ##  6         5           23.5
    ##  7         5           30.6
    ##  8         5           19.4
    ##  9         5           16.7
    ## 10         5           30.0
    ## # ... with 199,990 more rows
…
    ## Parsed with column specification:
    ## cols(
    ##   Year = col_double(),
    ##   Month = col_double(),
    ##   Day = col_double(),
    ##   Extent = col_double(),
    ##   Missing = col_double(),
    ##   Month_Name = col_character()
    ## )

``` r
ice
```

    ## # A tibble: 458 x 6
    ##     Year Month   Day Extent Missing Month_Name
    ##    <dbl> <dbl> <dbl>  <dbl>   <dbl> <fct>     
    ##  1  1978    11     1  10.7        0 Nov       
    ##  2  1978    12     1  12.7        0 Dec       
    ##  3  1979     2     1  15.9        0 Feb       
    ##  4  1979     3     1  16.6        0 Mar       
    ##  5  1979     6     1  13.1        0 Jun       
    ##  6  1979     7     1  11.6        0 Jul       
    ##  7  1979     9     1   7.23       0 Sep       
    ##  8  1979    10     1   7.40       0 Oct       
    ##  9  1980     1     1  14.2        0 Jan       
    ## 10  1980     3     1  16.2        0 Mar       
    ## # ... with 448 more rows
…
``` r
# Create a data frame for minimum sea ice and summarized into a new data frame
min_ice_extent <- ice %>% 
  group_by(Year) %>%
 summarise(min_sea_ice = min(Extent))
```

    ## `summarise()` ungrouping output (override with `.groups` argument)

``` r
min_ice_extent
```

    ## # A tibble: 39 x 2
    ##     Year min_sea_ice
    ##    <dbl>       <dbl>
    ##  1  1978       10.7 
    ##  2  1979        7.23
    ##  3  1980        7.54
    ##  4  1981        7.20
    ##  5  1982        7.40
    ##  6  1983        7.32
    ##  7  1984        6.83
    ##  8  1985        6.72
    ##  9  1986        7.23
    ## 10  1987        6.89
    ## # ... with 29 more rows
…
