…
    ## See spec(...) for full column specifications.

``` r
# view data
president_polls
```

    ## # A tibble: 9,320 x 38
    ##    question_id poll_id cycle state pollster_id pollster sponsor_ids sponsors
    ##          <dbl>   <dbl> <dbl> <chr>       <dbl> <chr>          <dbl> <chr>   
    ##  1      132202   70683  2020 Texas         383 Public ~        1328 Texas D~
    ##  2      132202   70683  2020 Texas         383 Public ~        1328 Texas D~
    ##  3      132253   70704  2020 Ariz~        1250 Trafalg~          NA <NA>    
    ##  4      132253   70704  2020 Ariz~        1250 Trafalg~          NA <NA>    
    ##  5      132253   70704  2020 Ariz~        1250 Trafalg~          NA <NA>    
    ##  6      132256   70705  2020 <NA>          744 Ipsos             71 Reuters 
    ##  7      132256   70705  2020 <NA>          744 Ipsos             71 Reuters 
    ##  8      132257   70705  2020 <NA>          744 Ipsos             71 Reuters 
    ##  9      132257   70705  2020 <NA>          744 Ipsos             71 Reuters 
    ## 10      132258   70705  2020 <NA>          744 Ipsos             71 Reuters 
    ## # ... with 9,310 more rows, and 30 more variables: display_name <chr>,
    ## #   pollster_rating_id <dbl>, pollster_rating_name <chr>, fte_grade <chr>,
    ## #   sample_size <dbl>, population <chr>, population_full <chr>,
    ## #   methodology <chr>, office_type <chr>, seat_number <dbl>, seat_name <lgl>,
    ## #   start_date <chr>, end_date <chr>, election_date <chr>,
    ## #   sponsor_candidate <chr>, internal <lgl>, partisan <chr>, tracking <lgl>,
    ## #   nationwide_batch <lgl>, ranked_choice_reallocated <lgl>, created_at <chr>,
    ## #   notes <chr>, url <chr>, stage <chr>, race_id <dbl>, answer <chr>,
    ## #   candidate_id <dbl>, candidate_name <chr>, candidate_party <chr>, pct <dbl>
…
``` r
# Covert "start_date" column to Date using lubridate
president_polls$start_date <- as.Date(president_polls$start_date, format = "%m/%d/%Y")

polls <- president_polls %>%
  #filtered start dates from 9/29 and above and selected "Donald Trump" and "Joseph R. Biden"using lubridate.
  filter(start_date >= "0020-09-29") %>%
  filter(candidate_name %in% c("Donald Trump", "Joseph R. Biden Jr."))

# view polls
polls
```

    ## # A tibble: 244 x 38
    ##    question_id poll_id cycle state pollster_id pollster sponsor_ids sponsors
    ##          <dbl>   <dbl> <dbl> <chr>       <dbl> <chr>          <dbl> <chr>   
    ##  1      132202   70683  2020 Texas         383 Public ~        1328 Texas D~
    ##  2      132202   70683  2020 Texas         383 Public ~        1328 Texas D~
    ##  3      132253   70704  2020 Ariz~        1250 Trafalg~          NA <NA>    
    ##  4      132253   70704  2020 Ariz~        1250 Trafalg~          NA <NA>    
    ##  5      132256   70705  2020 <NA>          744 Ipsos             71 Reuters 
    ##  6      132256   70705  2020 <NA>          744 Ipsos             71 Reuters 
    ##  7      132257   70705  2020 <NA>          744 Ipsos             71 Reuters 
    ##  8      132257   70705  2020 <NA>          744 Ipsos             71 Reuters 
    ##  9      132258   70705  2020 <NA>          744 Ipsos             71 Reuters 
    ## 10      132258   70705  2020 <NA>          744 Ipsos             71 Reuters 
    ## # ... with 234 more rows, and 30 more variables: display_name <chr>,
    ## #   pollster_rating_id <dbl>, pollster_rating_name <chr>, fte_grade <chr>,
    ## #   sample_size <dbl>, population <chr>, population_full <chr>,
    ## #   methodology <chr>, office_type <chr>, seat_number <dbl>, seat_name <lgl>,
    ## #   start_date <date>, end_date <chr>, election_date <chr>,
    ## #   sponsor_candidate <chr>, internal <lgl>, partisan <chr>, tracking <lgl>,
    ## #   nationwide_batch <lgl>, ranked_choice_reallocated <lgl>, created_at <chr>,
    ## #   notes <chr>, url <chr>, stage <chr>, race_id <dbl>, answer <chr>,
    ## #   candidate_id <dbl>, candidate_name <chr>, candidate_party <chr>, pct <dbl>
…
# to get the bootstrapped average percentage for each candidate
polls_wide %>%
  
  # group by state
  group_by(state) %>%
  # determine bootstrapped average percentage for each candidate using function from question 2
  summarise(boot_avg_pct_trump = get_01_boot_samp(mean(`Donald Trump`, na.rm = TRUE)), boot_avg_pct_biden = get_01_boot_samp(mean(`Joseph R. Biden Jr.`, na.rm = TRUE)))
```

    ## `summarise()` ungrouping output (override with `.groups` argument)

    ## # A tibble: 23 x 3
    ##    state     boot_avg_pct_trump boot_avg_pct_biden
    ##    <chr>                  <int>              <int>
    ##  1 Alabama                   38                 22
    ##  2 Arizona                   29                 20
    ##  3 Colorado                  39                 50
    ##  4 Florida                   24                 20
    ##  5 Georgia                   34                 29
    ##  6 Iowa                      39                  3
    ##  7 Maryland                  23                 23
    ##  8 Michigan                  16                 46
    ##  9 Minnesota                  8                  2
    ## 10 Missouri                  36                 30
    ## # ... with 13 more rows
…
    ## `summarise()` regrouping output by 'question_id-poll_id-state' (override with `.groups` argument)

``` r
# view data with average differences
new_polls_wide
```

    ## # A tibble: 121 x 6
    ## # Groups:   question_id-poll_id-state [121]
    ##    `question_id-poll_id-state` Trump Biden difference average avg_difference
    ##    <chr>                       <dbl> <dbl>      <dbl>   <dbl>          <dbl>
    ##  1 130599_70105_NA              41    54        -13      47.5        -0.274 
    ##  2 130607_70108_Georgia         44.9  46.6       -1.7    45.8        -0.0372
    ##  3 130619_70111_NA              38    43         -5      40.5        -0.123 
    ##  4 130620_70111_NA              40    47         -7      43.5        -0.161 
    ##  5 130621_70111_NA              41    50         -9      45.5        -0.198 
    ##  6 130623_70112_New Hampshire   45.3  53.1       -7.8    49.2        -0.159 
    ##  7 130649_70122_NA              45.9  48.6       -2.7    47.2        -0.0571
    ##  8 130657_70129_Michigan        44    50         -6      47          -0.128 
    ##  9 130667_70136_NA              41    51        -10      46          -0.217 
    ## 10 130682_70142_NA              40    47         -7      43.5        -0.161 
    ## # ... with 111 more rows
…
(Oh, and for all columns, cols = everything())

``` r
# convert the matrix of simulated draws to a long dataframe
samp_draws_long <- as.data.frame(samp_draws) %>%
  pivot_longer(cols = everything(),
               # give column names
               names_to = "simulation",
               values_to = "boot_mean")

# view data frame
samp_draws_long
```

    ## # A tibble: 50,000 x 2
    ##    simulation boot_mean
    ##    <chr>          <dbl>
    ##  1 V1              47.2
    ##  2 V2              45.7
    ##  3 V3              54.3
    ##  4 V4              51.7
    ##  5 V5              50.2
    ##  6 V6              47.0
    ##  7 V7              48.7
    ##  8 V8              45.3
    ##  9 V9              47.8
    ## 10 V10             46.8
    ## # ... with 49,990 more rows
…
